\relax 
\babel@aux{english}{}
\@writefile{toc}{\contentsline {section}{\numberline {1}Data Import}{2}\protected@file@percent }
\@writefile{toc}{\contentsline {section}{\numberline {2}Data queries}{3}\protected@file@percent }
\@writefile{toc}{\contentsline {section}{\numberline {3}Performance}{11}\protected@file@percent }
\@writefile{toc}{\contentsline {section}{\numberline {4}Conclusion}{12}\protected@file@percent }
