\babel@toc {english}{}
\contentsline {section}{\numberline {1}Data Import}{2}% 
\contentsline {section}{\numberline {2}Data queries}{3}% 
\contentsline {section}{\numberline {3}Performance}{11}% 
\contentsline {section}{\numberline {4}Conclusion}{12}% 
